<svg width="512" height="512" viewBox="0 0 512 512" fill="none" xmlns="http://www.w3.org/2000/svg">
<path d="M256 360C264.824 360 272 367.176 272 376H288C288 361.136 277.768 348.712 264 345.136V328H248V344H224V376C224 393.648 238.352 408 256 408C264.824 408 272 415.176 272 424V440H256C247.176 440 240 432.824 240 424H224C224 438.864 234.232 451.288 248 454.864V472H264V456H288V424C288 406.352 273.648 392 256 392C247.176 392 240 384.824 240 376V360H256Z" fill="#038C65"/>
<path d="M424.024 200.192L423.08 200.304L424.92 216.192L425.88 216.08C452.168 212.992 472 190.696 472 164.216C472 148.656 465.12 134.016 453.112 124.048L442.896 136.352C451.216 143.272 456 153.432 456 164.216C456 182.584 442.248 198.048 424.024 200.192Z" fill="#038C65"/>
<path d="M429.792 129.4L434.216 114.024C428.104 112.272 421.592 111.656 415.336 112.184L416.68 128.128C421.048 127.768 425.56 128.184 429.792 129.4Z" fill="#038C65"/>
<path d="M40 164.224C40 175 43.264 185.36 49.448 194.184L62.56 185C58.264 178.88 56 171.696 56 164.224C56 144.248 72.248 128 92.216 128C93.264 128 94.296 128.048 95.328 128.136L96.672 112.192C95.2 112.064 93.72 112 92.216 112C63.424 112 40 135.424 40 164.224Z" fill="#038C65"/>
<path d="M75.6557 196.44L68.3438 210.664C73.8958 213.52 79.8797 215.344 86.1357 216.08L87.0798 216.192L88.9197 200.304L87.9837 200.192C83.6557 199.68 79.5037 198.424 75.6557 196.44Z" fill="#038C65"/>
<path d="M304 104H288C288 129.568 273.048 152 256 152V168C282.472 168 304 139.288 304 104Z" fill="#038C65"/>
<path d="M456 344C454.624 344 453.256 344.136 451.888 344.248C442.048 316.2 415.376 296 384 296C361.488 296 340.456 306.6 326.936 324.16C315.992 313.92 302.896 305.992 288.336 301.216L322.544 269.856L346.2 293.504L365.232 255.44L429.632 247.864C472.024 242.872 504 206.912 504 164.216C504 117.784 466.216 80 419.784 80C377.088 80 341.128 111.976 336.136 154.384L328.56 218.776L290.496 237.808L311.216 258.528L269.304 296.944C267.544 296.72 265.784 296.536 264 296.4V232H289.064L284.272 193.688C314.456 179.944 336 144.976 336 104C336 51.064 300.112 8 256 8C211.888 8 176 51.064 176 104C176 144.976 197.544 179.944 227.728 193.688L222.936 232H248V296.408C246.216 296.544 244.456 296.728 242.696 296.952L200.784 258.536L221.504 237.816L183.44 218.784L175.864 154.392C170.872 111.976 134.912 80 92.216 80C45.784 80 8 117.784 8 164.224C8 206.92 39.976 242.88 82.376 247.864L146.776 255.44L165.808 293.504L189.464 269.856L223.672 301.216C198.152 309.592 176.944 327.552 164.384 350.872C150.912 336.424 132.2 328 112 328C74.752 328 44.016 356.432 40.368 392.728C21.944 396.304 8 412.552 8 432C8 454.056 25.944 472 48 472L181.08 471.944C200.016 491.656 226.576 504 256 504C299.176 504 336.272 477.544 351.976 440H456C482.472 440 504 418.472 504 392C504 365.528 482.472 344 456 344ZM352.024 156.248C356.064 121.904 385.192 96 419.784 96C457.4 96 488 126.608 488 164.224C488 198.808 462.104 227.936 427.752 231.976L362.92 239.608L344.408 221.096L352.024 156.248ZM334.424 233.736L350.264 249.576L341.8 266.496L317.504 242.192L334.424 233.736ZM192 104C192 59.888 220.712 24 256 24C291.288 24 320 59.888 320 104C320 148.112 291.288 184 256 184C220.712 184 192 148.112 192 104ZM243.232 198.656C247.4 199.464 251.64 200 256 200C260.36 200 264.6 199.464 268.768 198.656L270.936 216H241.064L243.232 198.656ZM24 164.216C24 126.6 54.6 96 92.216 96C126.8 96 155.936 121.904 159.976 156.248L167.6 221.08L149.088 239.592L84.256 231.96C49.896 227.936 24 198.808 24 164.216ZM161.736 249.576L177.576 233.736L194.488 242.192L170.192 266.496L161.736 249.576ZM48 456C34.768 456 24 445.232 24 432C24 418.768 34.768 408 48 408H56V400C56 369.12 81.128 344 112 344C130.152 344 146.776 352.728 157.312 367.392C153.912 377.664 152 388.6 152 400C152 420.608 158.096 439.776 168.472 455.952L48 456ZM256 488C207.48 488 168 448.52 168 400C168 351.48 207.48 312 256 312C304.52 312 344 351.48 344 400C344 448.52 304.52 488 256 488ZM456 424H357.096C358.928 416.28 360 408.272 360 400C360 375.968 351.728 353.88 337.992 336.256C348.392 321.216 365.528 312 384 312C414.872 312 440 337.12 440 368C440 370.408 439.848 372.784 439.552 375.112L455.424 377.12C455.808 374.12 456 371.048 456 368C456 365.304 455.824 362.648 455.536 360.032C455.688 360.024 455.84 360 456 360C473.648 360 488 374.352 488 392C488 409.648 473.648 424 456 424Z" fill="#038C65"/>
<path d="M72 400C72 403.368 72.424 406.728 73.256 409.992L88.76 406.016C88.256 404.056 88 402.032 88 400C88 386.768 98.768 376 112 376V360C89.944 360 72 377.944 72 400Z" fill="#038C65"/>
<path d="M384 328V344C397.232 344 408 354.768 408 368C408 370.032 407.744 372.056 407.24 374.008L422.744 377.984C423.576 374.728 424 371.368 424 368C424 345.944 406.056 328 384 328Z" fill="#038C65"/>
</svg>
