<svg width="80" height="80" viewBox="0 0 80 80" fill="none" xmlns="http://www.w3.org/2000/svg">
<g clip-path="url(#clip0)">
<path d="M40 60.6452C51.402 60.6452 60.6451 51.402 60.6451 40C60.6451 28.598 51.402 19.3549 40 19.3549C28.598 19.3549 19.3548 28.598 19.3548 40C19.3548 51.402 28.598 60.6452 40 60.6452Z" fill="#30C76A"/>
<path d="M40 11.6129C24.3471 11.6129 11.6129 24.3471 11.6129 40C11.6129 55.6529 24.3471 68.3871 40 68.3871C55.6529 68.3871 68.3871 55.6529 68.3871 40C68.3871 24.3471 55.6529 11.6129 40 11.6129ZM40 65.8065C25.7703 65.8065 14.1936 54.2297 14.1936 40C14.1936 25.7703 25.7703 14.1936 40 14.1936C54.2297 14.1936 65.8065 25.7703 65.8065 40C65.8065 54.2297 54.2297 65.8065 40 65.8065Z" fill="#333333"/>
<path d="M38.7097 38.7097H21.9355V41.2903H41.2903V21.9355H38.7097V38.7097Z" fill="#333333"/>
<path d="M40 19.3548C40.7126 19.3548 41.2903 18.7771 41.2903 18.0645C41.2903 17.3519 40.7126 16.7742 40 16.7742C39.2874 16.7742 38.7097 17.3519 38.7097 18.0645C38.7097 18.7771 39.2874 19.3548 40 19.3548Z" fill="#333333"/>
<path d="M40 63.2258C40.7126 63.2258 41.2903 62.6481 41.2903 61.9355C41.2903 61.2228 40.7126 60.6451 40 60.6451C39.2874 60.6451 38.7097 61.2228 38.7097 61.9355C38.7097 62.6481 39.2874 63.2258 40 63.2258Z" fill="#333333"/>
<path d="M61.9355 41.2903C62.6481 41.2903 63.2258 40.7126 63.2258 40C63.2258 39.2874 62.6481 38.7097 61.9355 38.7097C61.2229 38.7097 60.6452 39.2874 60.6452 40C60.6452 40.7126 61.2229 41.2903 61.9355 41.2903Z" fill="#333333"/>
<path d="M18.0645 41.2903C18.7771 41.2903 19.3548 40.7126 19.3548 40C19.3548 39.2874 18.7771 38.7097 18.0645 38.7097C17.3519 38.7097 16.7742 39.2874 16.7742 40C16.7742 40.7126 17.3519 41.2903 18.0645 41.2903Z" fill="#333333"/>
<path d="M9.12387 55.0052L7.63226 58.7355C4.32645 53.0465 2.58065 46.6219 2.58065 40C2.58065 19.3677 19.3677 2.58065 40 2.58065C48.5329 2.58065 56.8839 5.53548 63.5161 10.9006L65.1394 8.89419C58.049 3.15871 49.1213 0 40 0C17.9432 0 0 17.9432 0 40C0 47.1342 1.89935 54.0516 5.48774 60.169L1.54323 59.3806L1.03742 61.9097L8.54065 63.4103L11.5213 55.9626L9.12387 55.0052Z" fill="#333333"/>
<path d="M11.6129 67.0968C12.3255 67.0968 12.9032 66.5191 12.9032 65.8065C12.9032 65.0939 12.3255 64.5162 11.6129 64.5162C10.9003 64.5162 10.3226 65.0939 10.3226 65.8065C10.3226 66.5191 10.9003 67.0968 11.6129 67.0968Z" fill="#333333"/>
<path d="M74.5123 19.8311L78.4568 20.6195L78.9639 18.0891L71.4607 16.5885L68.48 24.0362L70.8761 24.9937L72.3678 21.2633C75.6736 26.9537 77.4194 33.3782 77.4194 40.0001C77.4194 60.6324 60.6323 77.4195 40 77.4195C31.4671 77.4195 23.1161 74.4646 16.4839 69.0995L14.8607 71.1059C21.951 76.8414 30.8787 80.0001 40 80.0001C62.0568 80.0001 80 62.0569 80 40.0001C80 32.8659 78.1007 25.9485 74.5123 19.8311Z" fill="#333333"/>
<path d="M68.3871 15.4839C69.0997 15.4839 69.6774 14.9062 69.6774 14.1936C69.6774 13.481 69.0997 12.9033 68.3871 12.9033C67.6744 12.9033 67.0967 13.481 67.0967 14.1936C67.0967 14.9062 67.6744 15.4839 68.3871 15.4839Z" fill="#333333"/>
</g>
<defs>
<clipPath id="clip0">
<rect width="80" height="80" fill="white"/>
</clipPath>
</defs>
</svg>
