%!PS-Adobe-3.0 EPSF-3.0
%%Creator: cairo 1.15.10 (http://cairographics.org)
%%CreationDate: Fri Sep 27 14:12:00 2019
%%Pages: 1
%%DocumentData: Clean7Bit
%%LanguageLevel: 2
%%BoundingBox: 30 21 266 204
%%EndComments
%%BeginProlog
50 dict begin
/q { gsave } bind def
/Q { grestore } bind def
/cm { 6 array astore concat } bind def
/w { setlinewidth } bind def
/J { setlinecap } bind def
/j { setlinejoin } bind def
/M { setmiterlimit } bind def
/d { setdash } bind def
/m { moveto } bind def
/l { lineto } bind def
/c { curveto } bind def
/h { closepath } bind def
/re { exch dup neg 3 1 roll 5 3 roll moveto 0 rlineto
      0 exch rlineto 0 rlineto closepath } bind def
/S { stroke } bind def
/f { fill } bind def
/f* { eofill } bind def
/n { newpath } bind def
/W { clip } bind def
/W* { eoclip } bind def
/BT { } bind def
/ET { } bind def
/BDC { mark 3 1 roll /BDC pdfmark } bind def
/EMC { mark /EMC pdfmark } bind def
/cairo_store_point { /cairo_point_y exch def /cairo_point_x exch def } def
/Tj { show currentpoint cairo_store_point } bind def
/TJ {
  {
    dup
    type /stringtype eq
    { show } { -0.001 mul 0 cairo_font_matrix dtransform rmoveto } ifelse
  } forall
  currentpoint cairo_store_point
} bind def
/cairo_selectfont { cairo_font_matrix aload pop pop pop 0 0 6 array astore
    cairo_font exch selectfont cairo_point_x cairo_point_y moveto } bind def
/Tf { pop /cairo_font exch def /cairo_font_matrix where
      { pop cairo_selectfont } if } bind def
/Td { matrix translate cairo_font_matrix matrix concatmatrix dup
      /cairo_font_matrix exch def dup 4 get exch 5 get cairo_store_point
      /cairo_font where { pop cairo_selectfont } if } bind def
/Tm { 2 copy 8 2 roll 6 array astore /cairo_font_matrix exch def
      cairo_store_point /cairo_font where { pop cairo_selectfont } if } bind def
/g { setgray } bind def
/rg { setrgbcolor } bind def
/d1 { setcachedevice } bind def
/cairo_data_source {
  CairoDataIndex CairoData length lt
    { CairoData CairoDataIndex get /CairoDataIndex CairoDataIndex 1 add def }
    { () } ifelse
} def
/cairo_flush_ascii85_file { cairo_ascii85_file status { cairo_ascii85_file flushfile } if } def
/cairo_image { image cairo_flush_ascii85_file } def
/cairo_imagemask { imagemask cairo_flush_ascii85_file } def
%%EndProlog
%%BeginSetup
%%EndSetup
%%Page: 1 1
%%BeginPageSetup
%%PageBoundingBox: 30 21 266 204
%%EndPageSetup
q 30 21 236 183 rectclip
1 0 0 -1 0 225 cm q
0.137255 0.121569 0.12549 rg
48.219 164.184 m 48.219 158.477 l 69.652 158.477 l 69.652 162.695 l 69.035
 168.066 67.094 172.344 63.859 175.52 c 60.625 178.699 56.125 180.273 50.359
 180.273 c 44.676 180.273 39.977 178.25 36.238 174.172 c 32.496 170.121 
30.613 165.168 30.613 159.348 c 30.613 153.441 32.469 148.461 36.211 144.441
 c 39.922 140.418 44.648 138.391 50.359 138.391 c 55.703 138.391 60.035 
139.715 63.379 142.359 c 66.727 145.004 68.809 148.715 69.652 153.523 c 
63.438 153.523 l 62.902 150.879 61.441 148.773 59.078 147.195 c 56.715 145.621
 53.816 144.832 50.414 144.832 c 46.645 144.832 43.523 146.211 41.02 148.969
 c 38.516 151.754 37.277 155.211 37.277 159.406 c 37.277 163.594 38.516 
167.055 41.02 169.812 c 43.523 172.594 46.645 173.973 50.414 173.973 c 57.164
 173.973 61.328 170.711 62.875 164.184 c h
48.219 164.184 m f
81.047 179.57 m 81.047 139.234 l 87.855 139.234 l 87.855 173.805 l 101.496
 173.805 l 101.496 179.57 l h
81.047 179.57 m f
117.785 159.402 m 117.785 163.48 119.023 166.828 121.473 169.5 c 123.918
 172.172 127.016 173.523 130.754 173.523 c 134.523 173.523 137.645 172.172
 140.094 169.5 c 142.539 166.828 143.777 163.48 143.777 159.402 c 143.777
 155.324 142.57 151.949 140.121 149.277 c 137.672 146.605 134.551 145.281
 130.754 145.281 c 126.984 145.281 123.891 146.605 121.445 149.277 c 118.996
 151.949 117.785 155.324 117.785 159.402 c 116.551 144.438 m 120.262 140.418
 124.988 138.391 130.699 138.391 c 136.406 138.391 141.133 140.387 144.875
 144.41 c 148.617 148.434 150.473 153.41 150.473 159.348 c 150.473 165.227
 148.617 170.176 144.875 174.199 c 141.133 178.25 136.406 180.273 130.699
 180.273 c 125.016 180.273 120.32 178.25 116.578 174.172 c 112.836 170.121
 110.953 165.168 110.953 159.348 c 110.953 153.441 112.809 148.461 116.551
 144.438 c f
168.664 174.395 m 177.074 174.395 l 181.156 174.395 183.18 172.426 183.18
 168.461 c 183.18 166.07 182.531 164.41 181.266 163.453 c 179.973 162.527
 178.145 162.047 175.812 162.047 c 168.664 162.047 l h
168.664 157.043 m 175.051 157.043 l 179.129 157.043 181.156 155.043 181.156
 151.051 c 181.156 146.801 178.82 144.723 174.992 144.723 c 168.664 144.723
 l h
161.859 179.57 m 161.859 139.234 l 175.219 139.234 l 183.234 139.234 187.258
 143.176 187.258 151.051 c 187.258 155.016 185.852 157.746 183.012 159.234
 c 186.836 160.387 189.227 163.539 189.227 168.461 c 189.227 175.859 185.262
 179.57 177.355 179.57 c h
161.859 179.57 m f
223.375 163.145 m 216.738 146.914 l 210.352 163.145 l h
229.871 179.57 m 225.852 169.5 l 207.988 169.5 l 204.078 179.57 l 197.27
 179.57 l 213.391 139.234 l 220.027 139.234 l 236.734 179.57 l h
229.871 179.57 m f
244.953 179.57 m 244.953 139.234 l 251.762 139.234 l 251.762 173.805 l 
265.402 173.805 l 265.402 179.57 l h
244.953 179.57 m f
0.427451 0.745098 0.290196 rg
113.527 98.574 m 114.332 95.734 116.367 94.145 116.383 94.137 c 116.434
 94.098 116.473 94.051 116.52 94.012 c 116.824 94.102 117.148 94.148 117.484
 94.148 c 119.352 94.148 120.867 92.633 120.867 90.766 c 120.867 88.895 
119.352 87.379 117.484 87.379 c 115.613 87.379 114.098 88.895 114.098 90.766
 c 114.098 90.793 114.102 90.82 114.102 90.848 c 114.098 90.848 114.094 
90.848 114.094 90.852 c 111.715 92.398 109.355 92.176 108.305 91.957 c 102.969
 83.676 101.855 75.605 101.633 73.188 c 103.82 70.855 106.652 70.688 107.219
 70.68 c 107.277 70.68 107.336 70.68 107.395 70.68 c 107.656 70.68 107.902
 70.625 108.133 70.535 c 119.758 70.535 l 119.859 72.258 120.051 74.844 
120.379 77.082 c 119.824 77.688 119.48 78.488 119.48 79.371 c 119.48 81.242
 120.996 82.758 122.867 82.758 c 124.738 82.758 126.254 81.242 126.254 79.371
 c 126.254 78.02 125.457 76.855 124.312 76.316 c 123.926 73.547 123.719 
69.969 123.66 68.457 c 123.621 67.383 122.738 66.531 121.66 66.531 c 105.965
 66.531 l 103.82 66.105 102.312 64.82 101.621 64.105 c 101.75 62.875 102.191
 60.492 102.621 58.57 c 103.852 53.082 106.641 48.117 107.562 46.574 c 110.621
 45.316 112.953 45.988 113.98 46.438 c 114.566 46.801 117.652 48.688 121.738
 50.445 c 121.316 52.238 120.926 54.148 120.57 56.172 c 119.508 56.746 118.781
 57.867 118.781 59.156 c 118.781 61.027 120.301 62.543 122.168 62.543 c 
124.039 62.543 125.555 61.027 125.555 59.156 c 125.555 58.211 125.164 57.355
 124.535 56.742 c 124.836 55.035 125.164 53.422 125.516 51.898 c 126.891
 52.367 128.316 52.777 129.754 53.086 c 130.312 54.191 131.453 54.949 132.773
 54.949 c 134.645 54.949 136.16 53.434 136.16 51.562 c 136.16 49.691 134.645
 48.176 132.773 48.176 c 131.855 48.176 131.027 48.543 130.418 49.133 c 
129.102 48.84 127.785 48.449 126.516 48.004 c 130.988 32.262 138.008 27.562
 140.609 26.324 c 141.848 28 142.172 30.086 142.223 30.496 c 142.223 66.676
 l 135.5 66.676 l 134.883 65.836 133.895 65.289 132.773 65.289 c 130.902
 65.289 129.387 66.805 129.387 68.676 c 129.387 70.547 130.902 72.062 132.773
 72.062 c 133.895 72.062 134.883 71.516 135.5 70.68 c 142.223 70.68 l 142.223
 106.82 l 142.066 108.766 141.23 110.203 140.598 111.039 c 139.562 110.566
 137.832 109.574 135.859 107.613 c 133.039 104.812 129.18 99.457 126.367
 89.668 c 127.746 89.273 129.707 88.738 131.609 88.301 c 132.207 88.844 
133 89.176 133.875 89.176 c 135.746 89.176 137.262 87.66 137.262 85.789 
c 137.262 83.922 135.746 82.406 133.875 82.406 c 132.512 82.406 131.34 83.215
 130.801 84.375 c 127.23 85.195 123.527 86.324 123.332 86.383 c 122.309 
86.699 121.711 87.762 121.98 88.801 c 124.746 99.512 128.777 105.945 132.398
 109.789 c 121.734 106.75 115.406 100.617 113.527 98.574 c 125.555 30.148
 m 127.977 29.016 130.359 28.188 132.508 27.582 c 129.191 31.176 125.516
 37.027 122.77 46.516 c 120.23 45.391 118.141 44.238 116.992 43.57 c 116.965
 43.547 116.945 43.52 116.914 43.496 c 114.613 41.73 113.902 39.695 113.688
 38.656 c 118.594 33.504 125.496 30.176 125.555 30.148 c 142.52 22.488 m
 142.48 22.453 142.434 22.426 142.391 22.395 c 142.34 22.352 142.289 22.309
 142.23 22.273 c 142.184 22.246 142.133 22.223 142.082 22.199 c 142.016 
22.164 141.945 22.129 141.875 22.102 c 141.836 22.086 141.797 22.078 141.754
 22.066 c 141.672 22.039 141.586 22.016 141.496 22 c 141.449 21.992 141.406
 21.992 141.359 21.988 c 141.281 21.98 141.203 21.973 141.121 21.973 c 141.109
 21.973 141.094 21.973 141.082 21.973 c 140.738 21.988 132.641 22.418 123.848
 26.523 c 123.512 26.684 115.566 30.508 110.094 36.645 c 109.762 37.016 
109.582 37.492 109.586 37.988 c 109.586 38.105 109.609 39.762 110.57 41.855
 c 109.023 41.91 107.25 42.277 105.324 43.188 c 104.988 43.344 104.699 43.598
 104.496 43.91 c 104.328 44.172 100.348 50.387 98.711 57.695 c 98.512 58.594
 97.512 63.176 97.582 64.895 c 97.598 65.297 97.734 65.688 97.977 66.012
 c 98.051 66.113 99.055 67.434 100.863 68.645 c 99.871 69.289 98.883 70.145
 98 71.281 c 97.715 71.645 97.566 72.102 97.578 72.566 c 97.59 73.016 97.969
 83.73 105.379 94.805 c 105.617 95.156 105.957 95.422 106.352 95.57 c 106.465
 95.609 107.984 96.156 110.148 96.105 c 109.816 96.91 109.547 97.805 109.379
 98.789 c 109.285 99.344 109.426 99.91 109.773 100.355 c 110.199 100.902
 120.457 113.766 141.02 115.379 c 141.07 115.383 141.125 115.383 141.176
 115.383 c 141.18 115.383 l 141.684 115.383 142.16 115.188 142.523 114.863
 c 142.891 114.535 145.887 111.727 146.223 107.039 c 146.227 106.988 146.227
 106.941 146.227 106.895 c 146.227 30.387 l 146.227 30.328 146.227 30.27
 146.219 30.211 c 146.203 30.02 145.766 25.434 142.52 22.488 c f
190.035 66.523 m 176.016 66.523 l 175.969 64.652 175.82 62.859 175.668 
61.461 c 176.312 60.844 176.715 59.977 176.715 59.012 c 176.715 57.145 175.199
 55.629 173.328 55.629 c 171.461 55.629 169.941 57.145 169.941 59.012 c 
169.941 60.289 170.648 61.398 171.691 61.977 c 171.828 63.25 171.965 64.863
 172.008 66.523 c 165.211 66.523 l 164.59 65.766 163.648 65.285 162.594 
65.285 c 160.723 65.285 159.207 66.801 159.207 68.668 c 159.207 70.539 160.723
 72.059 162.594 72.059 c 163.773 72.059 164.816 71.449 165.422 70.527 c 
187.887 70.527 l 188.113 70.621 188.363 70.672 188.625 70.672 c 188.676 
70.672 188.727 70.672 188.777 70.672 c 189.289 70.684 192.188 70.848 194.387
 73.184 c 194.172 75.602 193.074 83.633 187.719 91.949 c 186.664 92.16 184.285
 92.383 181.926 90.844 c 181.82 90.777 181.711 90.723 181.598 90.676 c 181.602
 90.598 181.609 90.52 181.609 90.441 c 181.609 88.574 180.094 87.055 178.223
 87.055 c 176.355 87.055 174.84 88.574 174.84 90.441 c 174.84 92.312 176.355
 93.828 178.223 93.828 c 178.566 93.828 178.898 93.777 179.211 93.684 c 
179.328 93.848 179.465 94.004 179.637 94.129 c 179.656 94.145 181.688 95.727
 182.492 98.57 c 180.191 101.09 171.227 109.762 155.625 111.293 c 154.98
 110.52 153.969 108.977 153.797 106.812 c 153.797 86.629 l 156.488 86.527
 162.164 86.664 169.508 88.777 c 168.777 91.934 167.801 95.344 166.52 98.344
 c 164.953 98.641 163.766 100.016 163.766 101.668 c 163.766 103.539 165.281
 105.055 167.152 105.055 c 169.023 105.055 170.539 103.539 170.539 101.668
 c 170.539 101.09 170.391 100.547 170.137 100.07 c 172.953 93.559 174.383
 85.461 174.977 81.285 c 176.012 80.707 176.715 79.602 176.715 78.328 c 
176.715 76.457 175.199 74.941 173.328 74.941 c 171.461 74.941 169.941 76.457
 169.941 78.328 c 169.941 79.293 170.348 80.16 170.996 80.777 c 170.836 
81.883 170.617 83.277 170.324 84.844 c 162.73 82.695 156.844 82.504 153.797
 82.613 c 153.797 30.488 l 153.844 30.113 154.133 28.207 155.223 26.578 
c 157.98 27.746 165.383 32.254 169.426 47.918 c 168.172 48.367 166.539 48.895
 165.043 49.223 c 164.426 48.578 163.559 48.172 162.594 48.172 c 160.723
 48.172 159.207 49.688 159.207 51.555 c 159.207 53.426 160.723 54.941 162.594
 54.941 c 163.859 54.941 164.965 54.242 165.543 53.211 c 168.734 52.559 
172.074 51.211 172.551 51.012 c 173.457 50.637 173.961 49.664 173.742 48.711
 c 171.219 37.777 167.078 31.316 163.324 27.527 c 165.52 28.137 167.961 
28.973 170.445 30.137 c 170.52 30.168 177.422 33.5 182.328 38.648 c 182.129
 39.609 181.512 41.395 179.641 43.043 c 179.211 42.844 178.73 42.73 178.223
 42.73 c 176.355 42.73 174.84 44.246 174.84 46.113 c 174.84 47.984 176.355
 49.5 178.223 49.5 c 179.906 49.5 181.297 48.273 181.559 46.668 c 182.133
 46.34 184.762 45.047 188.457 46.57 c 189.379 48.109 192.164 53.059 193.395
 58.562 c 193.824 60.484 194.266 62.855 194.398 64.09 c 193.695 64.805 192.172
 66.098 190.035 66.523 c 198.016 71.273 m 197.133 70.141 196.145 69.281 
195.152 68.637 c 196.965 67.426 197.965 66.105 198.039 66.004 c 198.281 
65.68 198.418 65.293 198.434 64.891 c 198.504 63.168 197.508 58.59 197.305
 57.688 c 195.668 50.383 191.688 44.164 191.52 43.906 c 191.316 43.59 191.031
 43.34 190.691 43.18 c 188.766 42.27 186.996 41.906 185.449 41.848 c 186.406
 39.754 186.43 38.102 186.434 37.98 c 186.434 37.488 186.254 37.008 185.926
 36.641 c 180.453 30.5 172.504 26.68 172.156 26.512 c 163.375 22.41 155.277
 21.98 154.938 21.965 c 154.41 21.949 153.891 22.129 153.496 22.484 c 153.375
 22.59 153.262 22.703 153.148 22.816 c 153.145 22.816 l 150.219 25.762 149.812
 30.02 149.797 30.207 c 149.793 30.266 149.789 30.32 149.789 30.379 c 149.789
 106.891 l 149.789 106.938 149.793 106.984 149.797 107.031 c 150.145 111.922
 153.395 114.773 153.535 114.895 c 153.898 115.207 154.363 115.375 154.84
 115.375 c 154.891 115.375 154.945 115.375 154.996 115.371 c 175.562 113.758
 185.816 100.895 186.242 100.348 c 186.59 99.906 186.734 99.336 186.641 
98.781 c 186.473 97.797 186.199 96.902 185.867 96.098 c 188.023 96.148 189.551
 95.605 189.664 95.562 c 190.059 95.418 190.402 95.148 190.637 94.797 c 
198.047 83.723 198.426 73.012 198.438 72.559 c 198.453 72.094 198.305 71.641
 198.016 71.273 c f
0.576471 0.584314 0.596078 rg
37.656 202.914 m 32.996 193.18 l 32.996 202.914 l 30.613 202.914 l 30.613
 188.188 l 33.098 188.188 l 38.559 199.566 l 43.973 188.188 l 46.445 188.188
 l 46.445 202.914 l 44.074 202.914 l 44.074 193.199 l 39.484 202.914 l h
37.656 202.914 m f
57.762 196.918 m 55.336 190.992 l 53.008 196.918 l h
60.133 202.914 m 58.664 199.238 l 52.145 199.238 l 50.715 202.914 l 48.23
 202.914 l 54.117 188.188 l 56.539 188.188 l 62.637 202.914 l h
60.133 202.914 m f
66.898 195.129 m 69.23 195.129 l 70.594 195.129 71.457 194.352 71.457 192.777
 c 71.457 191.176 70.574 190.293 69.207 190.293 c 66.898 190.293 l h
64.414 202.914 m 64.414 188.188 l 69.293 188.188 l 70.617 188.188 71.672
 188.59 72.484 189.379 c 73.285 190.172 73.684 191.312 73.684 192.777 c 
73.684 194.883 72.719 196.301 71.211 196.754 c 74.32 202.914 l 71.715 202.914
 l 68.848 197.234 l 66.898 197.234 l 66.898 202.914 l h
64.414 202.914 m f
83.449 202.914 m 78.422 196.73 l 78.422 202.914 l 75.934 202.914 l 75.934
 188.188 l 78.422 188.188 l 78.422 194.352 l 83.449 188.188 l 86.266 188.188
 l 80.402 195.531 l 86.266 202.914 l h
83.449 202.914 m f
88.172 202.914 m 88.172 188.188 l 96.695 188.188 l 96.695 190.395 l 90.656
 190.395 l 90.656 194.504 l 96.273 194.504 l 96.273 196.609 l 90.656 196.609
 l 90.656 200.707 l 96.695 200.707 l 96.695 202.914 l h
88.172 202.914 m f
98.656 190.293 m 98.656 188.188 l 108.145 188.188 l 108.145 190.293 l 104.695
 190.293 l 104.695 202.914 l 102.207 202.914 l 102.207 190.293 l h
98.656 190.293 m f
110.516 188.188 2.488 14.727 re f
125.988 202.914 m 118.605 192.039 l 118.605 202.914 l 116.117 202.914 l
 116.117 188.188 l 118.707 188.188 l 125.875 198.684 l 125.875 188.188 l
 128.359 188.188 l 128.359 202.914 l h
125.988 202.914 m f
137.738 197.297 m 137.738 195.211 l 145.559 195.211 l 145.559 196.754 l
 145.336 198.715 144.625 200.273 143.445 201.434 c 142.266 202.594 140.621
 203.168 138.516 203.168 c 136.441 203.168 134.727 202.43 133.363 200.941
 c 131.996 199.461 131.309 197.656 131.309 195.531 c 131.309 193.375 131.988
 191.559 133.352 190.09 c 134.707 188.621 136.434 187.883 138.516 187.883
 c 140.469 187.883 142.047 188.363 143.27 189.328 c 144.492 190.293 145.254
 191.648 145.559 193.406 c 143.293 193.406 l 143.098 192.441 142.562 191.668
 141.699 191.094 c 140.836 190.52 139.781 190.234 138.539 190.234 c 137.16
 190.234 136.023 190.734 135.109 191.742 c 134.195 192.758 133.742 194.023
 133.742 195.551 c 133.742 197.082 134.195 198.344 135.109 199.352 c 136.023
 200.367 137.16 200.871 138.539 200.871 c 141 200.871 142.52 199.68 143.086
 197.297 c h
137.738 197.297 m f
155.938 197.934 m 156.07 199.812 156.965 201.023 158.648 201.023 c 159.375
 201.023 159.922 200.809 160.301 200.375 c 160.668 199.957 160.855 199.422
 160.855 198.777 c 160.855 198.273 160.617 197.852 160.145 197.523 c 159.664
 197.195 159.09 196.918 158.422 196.691 c 157.742 196.465 157.066 196.199
 156.398 195.902 c 155.73 195.602 155.156 195.129 154.672 194.492 c 154.191
 193.855 153.957 193.055 153.957 192.078 c 153.957 190.816 154.336 189.801
 155.094 189.031 c 155.855 188.262 157.035 187.883 158.648 187.883 c 160.246
 187.883 161.531 188.57 162.199 189.586 c 162.867 190.613 163.215 191.699
 163.215 192.797 c 160.914 192.797 l 160.805 190.91 160.055 189.965 158.648
 189.953 c 157.816 189.953 157.242 190.152 156.902 190.539 c 156.562 190.941
 156.398 191.414 156.398 191.957 c 156.398 192.523 156.633 192.984 157.117
 193.363 c 157.59 193.746 158.176 194.062 158.863 194.309 c 159.551 194.566
 160.227 194.832 160.914 195.129 c 161.594 195.43 162.168 195.871 162.652
 196.453 c 163.121 197.039 163.359 197.77 163.359 198.641 c 163.359 199.988
 162.949 201.086 162.117 201.918 c 161.285 202.75 160.137 203.168 158.648
 203.168 c 157.035 203.168 155.812 202.707 154.992 201.773 c 154.16 200.84
 153.719 199.566 153.645 197.934 c h
155.938 197.934 m f
168.266 195.551 m 168.266 197.039 168.719 198.262 169.613 199.238 c 170.504
 200.211 171.633 200.707 173 200.707 c 174.375 200.707 175.516 200.211 176.41
 199.238 c 177.301 198.262 177.754 197.039 177.754 195.551 c 177.754 194.062
 177.312 192.828 176.418 191.855 c 175.527 190.879 174.387 190.398 173 190.398
 c 171.621 190.398 170.496 190.879 169.602 191.855 c 168.707 192.828 168.266
 194.062 168.266 195.551 c 167.816 190.09 m 169.168 188.621 170.895 187.883
 172.98 187.883 c 175.062 187.883 176.789 188.609 178.156 190.078 c 179.52
 191.547 180.199 193.363 180.199 195.531 c 180.199 197.676 179.52 199.484
 178.156 200.953 c 176.789 202.43 175.062 203.168 172.98 203.168 c 170.906
 203.168 169.191 202.43 167.824 200.941 c 166.457 199.461 165.77 197.656
 165.77 195.531 c 165.77 193.375 166.449 191.559 167.816 190.09 c f
183.137 202.914 m 183.137 188.188 l 185.621 188.188 l 185.621 200.809 l
 190.602 200.809 l 190.602 202.914 l h
183.137 202.914 m f
201.465 197.316 m 201.465 188.188 l 203.949 188.188 l 203.949 197.316 l
 203.949 199.32 203.52 200.797 202.664 201.742 c 201.812 202.695 200.43 
203.168 198.527 203.168 c 194.801 203.168 193.035 201.27 193.035 197.316
 c 193.035 188.188 l 195.52 188.188 l 195.52 197.316 l 195.551 199.586 196.547
 200.727 198.508 200.727 c 200.613 200.727 201.434 199.617 201.465 197.316
 c f
206.293 190.293 m 206.293 188.188 l 215.781 188.188 l 215.781 190.293 l
 212.332 190.293 l 212.332 202.914 l 209.848 202.914 l 209.848 190.293 l
 h
206.293 190.293 m f
218.156 188.188 2.484 14.727 re f
226.055 195.551 m 226.055 197.039 226.508 198.262 227.398 199.238 c 228.293
 200.211 229.422 200.707 230.789 200.707 c 232.164 200.707 233.305 200.211
 234.195 199.238 c 235.09 198.262 235.543 197.039 235.543 195.551 c 235.543
 194.062 235.102 192.828 234.207 191.855 c 233.312 190.879 232.176 190.398
 230.789 190.398 c 229.41 190.398 228.285 190.879 227.391 191.855 c 226.496
 192.828 226.055 194.062 226.055 195.551 c 225.602 190.09 m 226.957 188.621
 228.684 187.883 230.766 187.883 c 232.852 187.883 234.574 188.609 235.941
 190.078 c 237.309 191.547 237.984 193.363 237.984 195.531 c 237.984 197.676
 237.309 199.484 235.941 200.953 c 234.574 202.43 232.852 203.168 230.766
 203.168 c 228.691 203.168 226.977 202.43 225.613 200.941 c 224.246 199.461
 223.559 197.656 223.559 195.531 c 223.559 193.375 224.238 191.559 225.602
 190.09 c f
250.793 202.914 m 243.41 192.039 l 243.41 202.914 l 240.926 202.914 l 240.926
 188.188 l 243.516 188.188 l 250.68 198.684 l 250.68 188.188 l 253.164 188.188
 l 253.164 202.914 l h
250.793 202.914 m f
257.973 197.934 m 258.109 199.812 259 201.023 260.684 201.023 c 261.414
 201.023 261.957 200.809 262.336 200.375 c 262.707 199.957 262.891 199.422
 262.891 198.777 c 262.891 198.273 262.656 197.852 262.184 197.523 c 261.703
 197.195 261.125 196.918 260.457 196.691 c 259.781 196.465 259.105 196.199
 258.434 195.902 c 257.77 195.602 257.195 195.129 256.711 194.492 c 256.23
 193.855 255.992 193.055 255.992 192.078 c 255.992 190.816 256.371 189.801
 257.133 189.031 c 257.891 188.262 259.074 187.883 260.684 187.883 c 262.285
 187.883 263.57 188.57 264.238 189.586 c 264.906 190.613 265.254 191.699
 265.254 192.797 c 262.953 192.797 l 262.84 190.91 262.09 189.965 260.684
 189.953 c 259.852 189.953 259.277 190.152 258.938 190.539 c 258.598 190.941
 258.434 191.414 258.434 191.957 c 258.434 192.523 258.672 192.984 259.156
 193.363 c 259.625 193.746 260.211 194.062 260.902 194.309 c 261.586 194.566
 262.266 194.832 262.953 195.129 c 263.633 195.43 264.207 195.871 264.688
 196.453 c 265.16 197.039 265.398 197.77 265.398 198.641 c 265.398 199.988
 264.988 201.086 264.156 201.918 c 263.324 202.75 262.172 203.168 260.684
 203.168 c 259.074 203.168 257.852 202.707 257.031 201.773 c 256.199 200.84
 255.754 199.566 255.684 197.934 c h
257.973 197.934 m f
Q Q
showpage
%%Trailer
end
%%EOF
